6 ファクターモデルの導入 – 実証会計・ファイナンスの勉強ノート
…
前年度末の時価総額に基づくポートフォリオ・ソート

ME_sorted_portfolio <- annual_data |>
  select(year, firm_ID, ME_rank10) |> # 年次データから追加したい情報を抽出
  full_join(monthly_data, by = c("year", "firm_ID")) |> # yearとfirm_IDをキーに月次データと結合
  drop_na() |> # 欠損行を削除
  summarize(
    .by = c(month_ID, ME_rank10), # 月次と時価総額ランクでグループ化
    # 各グループで月次超過リターンの平均値を計算
    Re = mean(Re)
    )
ME_sorted_portfolio

# A tibble: 600 × 3
   month_ID ME_rank10       Re
      <dbl> <fct>        <dbl>
 1       25 2          0.0976 
 2       26 2          0.00392
 3       27 2          0.0172 
 4       28 2          0.0773 
 5       29 2          0.00948
 6       30 2          0.0473 
 7       31 2          0.0313 
 8       32 2          0.0136 
 9       33 2          0.00911
10       34 2         -0.0962 
# ℹ 590 more rows
…
簿価時価比率に基づくランク付け (1)

annual_data |>
  mutate(
    .by = year, # 年度ごとに
    # 年度ごとに簿価時価比率のパーセンタイル順位を計算
    BEME_percent_rank = percent_rank(lagged_BEME)
  )

# A tibble: 7,920 × 26
    year firm_ID     ME annual_R annual_R_F annual_Re industry_ID sales    OX
   <dbl>   <dbl>  <dbl>    <dbl>      <dbl>     <dbl>       <dbl> <dbl> <dbl>
 1  2015       1  3577.   NA      0.00743      NA              NA   NA   NA  
 2  2016       1  6883.    0.997  0.000565      0.997           1 5949. 564. 
 3  2017       1 11377.    0.688  0.0000488     0.688           1 6505. 691. 
 4  2018       1  8695.   -0.214  0.00579      -0.219           1 6846. 751. 
 5  2019       1 13958.    0.647 -0.000770      0.648           1 7572. 959. 
 6  2020       1  9709.   -0.284  0.000380     -0.285           1 7538. 778. 
 7  2015       2  4087.   NA      0.00579      NA               1 3506.  45.8
 8  2016       2  5593.    0.375 -0.000770      0.376           1 3491.  51.2
 9  2017       2  9153.    0.641  0.000380      0.640           1 3946.  83.4
10  2018       2  7104.   -0.220  0.00371      -0.223           1 4139.  93.4
# ℹ 7,910 more rows
# ℹ 17 more variables: NFE <dbl>, X <dbl>, OA <dbl>, FA <dbl>, OL <dbl>,
#   FO <dbl>, BE <dbl>, lagged_BE <dbl>, ROE <dbl>, lag_ME <dbl>,
#   lagged_BEME <dbl>, lagged_ME <dbl>, w_M <dbl>, ME_rank10 <fct>,
#   BEME_rank10 <fct>, ME_rank2 <fct>, BEME_percent_rank <dbl>
…
