6 株式データの取得と可視化 – 実証会計・ファイナンスの勉強ノート
…
6.1 株式データの取得と可視化

前章では財務データを題材に、クロスセクションデータを扱うために必要なデータの取得と操作と可視化について学習しました。 特に重要な操作として，group_by()関数とmutate()やsummarise()関数の組み合わせて，グループごとの変数の値を計算する方法を学びました。 本章では株式データを題材に，株式データの理解に必要な株式の基礎知識とともに，リターンの定義や計算について学び，最後には統計的推論と線形回帰分析についても学習します。

6.1.1 株価データのダウンロードと読み込み

いままでと同じように、readrパッケージのread_csv()関数でCSVファイルを読み込みます。 ここでは、ch05_stock_data.csvを使います。

株式データの読み込み

stock_data <- read_csv("data/ch05_stock_data.csv")
print(stock_data)

# A tibble: 95,040 × 9
    year month month_ID firm_ID stock_price   DPS shares_outstanding
   <dbl> <dbl>    <dbl>   <dbl>       <dbl> <dbl>              <dbl>
 1  2015     1        1       1         954     0            2422000
 2  2015     2        2       1         960     0            2422000
 3  2015     3        3       1        1113     0            2422000
 4  2015     4        4       1        1081     0            2422000
 5  2015     5        5       1        1317     0            2422000
 6  2015     6        6       1        1366    29            2422000
 7  2015     7        7       1        1353     0            2422000
 8  2015     8        8       1        1209     0            2422000
 9  2015     9        9       1        1291     0            2422000
10  2015    10       10       1        1407     0            2422000
# ℹ 95,030 more rows
# ℹ 2 more variables: adjustment_coefficient <dbl>, R_F <dbl>
…
